…
## # A tibble: 6 x 9
##   Carat Colour Clarity Cut   Certification Polish Symmetry Price Wholesaler
##   <dbl> <chr>  <chr>   <chr> <chr>         <chr>  <chr>    <dbl>      <dbl>
## 1  0.92 I      SI2     G     AGS           V      V         3000          1
## 2  0.92 I      SI2     V     AGS           G      G         3000          1
## 3  0.82 F      SI2     I     GIA           X      X         3004          1
## 4  0.81 G      SI1     I     GIA           X      V         3004          1
## 5  0.9  J      VS2     V     GIA           V      V         3006          1
## 6  0.87 F      SI2     I     AGS           G      V         3007          1

###COunt of each variable
diamond_data %>% count(Carat)

## # A tibble: 50 x 2
##    Carat     n
##    <dbl> <int>
##  1  0.09     5
##  2  0.1     13
##  3  0.11     5
##  4  0.2      1
##  5  0.21     7
##  6  0.22     5
##  7  0.23     7
##  8  0.27     1
##  9  0.28     2
## 10  0.3    154
## # ... with 40 more rows
…
diamond_data %>% count(Symmetry)

## # A tibble: 5 x 2
##   Symmetry     n
##   <chr>    <int>
## 1 F           21
## 2 G          157
## 3 I            5
## 4 V          206
## 5 X           51

diamond_data %>% count(Price)

## # A tibble: 197 x 2
##    Price     n
##    <dbl> <int>
##  1   160     6
##  2   180    11
##  3   190     5
##  4   320     2
##  5   330     6
##  6   340     6
##  7   360     5
##  8   372     1
##  9   404     1
## 10   439     1
## # ... with 187 more rows
…
    diamond_cut = case_when(
      Cut %in%
        c("F",
          "G") ~
          "less than ideal",
      Cut %in%
        c("I",
          "V",
          "X") ~
          "more than ideal",
      Cut == "NA" ~ "NA")
  ) %>%
  print()

## # A tibble: 440 x 10
##    Carat Colour Clarity Cut   Certification Polish Symmetry Price Wholesaler
##    <dbl> <chr>  <chr>   <chr> <chr>         <chr>  <chr>    <dbl>      <dbl>
##  1  0.92 I      SI2     G     AGS           V      V         3000          1
##  2  0.92 I      SI2     V     AGS           G      G         3000          1
##  3  0.82 F      SI2     I     GIA           X      X         3004          1
##  4  0.81 G      SI1     I     GIA           X      V         3004          1
##  5  0.9  J      VS2     V     GIA           V      V         3006          1
##  6  0.87 F      SI2     I     AGS           G      V         3007          1
##  7  0.8  D      SI2     I     GIA           V      V         3008          1
##  8  0.84 F      SI1     G     GIA           V      V         3010          1
##  9  0.8  D      SI2     V     GIA           V      V         3012          1
## 10  0.8  D      SI2     V     GIA           V      X         3012          1
## # ... with 430 more rows, and 1 more variable: diamond_cut <chr>
…
    avg_polish = case_when(
      Polish %in%
        c("F",
          "G") ~
          "no",
      Polish %in%
        c("I",
          "V",
          "X") ~
          "yes",
      Polish == "NA" ~ "NA")
  ) %>%
  print()

## # A tibble: 440 x 11
##    Carat Colour Clarity Cut   Certification Polish Symmetry Price Wholesaler
##    <dbl> <chr>  <chr>   <chr> <chr>         <chr>  <chr>    <dbl>      <dbl>
##  1  0.92 I      SI2     G     AGS           V      V         3000          1
##  2  0.92 I      SI2     V     AGS           G      G         3000          1
##  3  0.82 F      SI2     I     GIA           X      X         3004          1
##  4  0.81 G      SI1     I     GIA           X      V         3004          1
##  5  0.9  J      VS2     V     GIA           V      V         3006          1
##  6  0.87 F      SI2     I     AGS           G      V         3007          1
##  7  0.8  D      SI2     I     GIA           V      V         3008          1
##  8  0.84 F      SI1     G     GIA           V      V         3010          1
##  9  0.8  D      SI2     V     GIA           V      V         3012          1
## 10  0.8  D      SI2     V     GIA           V      X         3012          1
## # ... with 430 more rows, and 2 more variables: diamond_cut <chr>,
## #   avg_polish <chr>
…
